%YAML 1.1
%TAG !u! tag:unity3d.com,2011:
--- !u!181963792 &2655988077585873504
Preset:
  m_ObjectHideFlags: 0
  m_CorrespondingSourceObject: {fileID: 0}
  m_PrefabInstance: {fileID: 0}
  m_PrefabAsset: {fileID: 0}
  m_Name: MovieRecorderSettings
  m_TargetType:
    m_NativeTypeID: 114
    m_ManagedTypePPtr: {fileID: 11500000, guid: 6fde0a8ac3e6b482c95fa602e65ab045,
      type: 3}
    m_ManagedTypeFallback: 
  m_Properties:
  - target: {fileID: 0}
    propertyPath: m_Enabled
    value: 1
    objectReference: {fileID: 0}
  - target: {fileID: 0}
    propertyPath: m_EditorHideFlags
    value: 0
    objectReference: {fileID: 0}
  - target: {fileID: 0}
    propertyPath: m_EditorClassIdentifier
    value: 
    objectReference: {fileID: 0}
  - target: {fileID: 0}
    propertyPath: enabled
    value: 1
    objectReference: {fileID: 0}
  - target: {fileID: 0}
    propertyPath: take
    value: 3
    objectReference: {fileID: 0}
  - target: {fileID: 0}
    propertyPath: captureEveryNthFrame
    value: 1
    objectReference: {fileID: 0}
  - target: {fileID: 0}
    propertyPath: fileNameGenerator.m_Path.m_Root
    value: 1
    objectReference: {fileID: 0}
  - target: {fileID: 0}
    propertyPath: fileNameGenerator.m_Path.m_Leaf
    value: Recordings
    objectReference: {fileID: 0}
  - target: {fileID: 0}
    propertyPath: fileNameGenerator.m_Path.m_ForceAssetFolder
    value: 0
    objectReference: {fileID: 0}
  - target: {fileID: 0}
    propertyPath: fileNameGenerator.m_Path.m_AbsolutePath
    value: 
    objectReference: {fileID: 0}
  - target: {fileID: 0}
    propertyPath: fileNameGenerator.m_FileName
    value: replay
    objectReference: {fileID: 0}
  - target: {fileID: 0}
    propertyPath: m_Version
    value: 1
    objectReference: {fileID: 0}
  - target: {fileID: 0}
    propertyPath: encoderSettings
    value: 7295298301959864320
    objectReference: {fileID: 0}
  - target: {fileID: 0}
    propertyPath: captureAlpha
    value: 0
    objectReference: {fileID: 0}
  - target: {fileID: 0}
    propertyPath: captureAudio
    value: 1
    objectReference: {fileID: 0}
  - target: {fileID: 0}
    propertyPath: m_ImageInputSelector.m_Selected
    value: gameViewInputSettings
    objectReference: {fileID: 0}
  - target: {fileID: 0}
    propertyPath: m_ImageInputSelector.gameViewInputSettings.m_OutputResolution.m_CustomWidth
    value: 1024
    objectReference: {fileID: 0}
  - target: {fileID: 0}
    propertyPath: m_ImageInputSelector.gameViewInputSettings.m_OutputResolution.m_CustomHeight
    value: 1024
    objectReference: {fileID: 0}
  - target: {fileID: 0}
    propertyPath: m_ImageInputSelector.gameViewInputSettings.m_OutputResolution.imageHeight
    value: 0
    objectReference: {fileID: 0}
  - target: {fileID: 0}
    propertyPath: m_ImageInputSelector.gameViewInputSettings.m_OutputResolution.maxSupportedHeight
    value: 2160
    objectReference: {fileID: 0}
  - target: {fileID: 0}
    propertyPath: m_ImageInputSelector.gameViewInputSettings.m_OutputResolution.m_AspectRatio.m_CustomAspectX
    value: 1
    objectReference: {fileID: 0}
  - target: {fileID: 0}
    propertyPath: m_ImageInputSelector.gameViewInputSettings.m_OutputResolution.m_AspectRatio.m_CustomAspectY
    value: 1
    objectReference: {fileID: 0}
  - target: {fileID: 0}
    propertyPath: m_ImageInputSelector.gameViewInputSettings.m_OutputResolution.m_AspectRatio.m_ImageAspect
    value: 1
    objectReference: {fileID: 0}
  - target: {fileID: 0}
    propertyPath: m_ImageInputSelector.gameViewInputSettings.flipFinalOutput
    value: 0
    objectReference: {fileID: 0}
  - target: {fileID: 0}
    propertyPath: m_ImageInputSelector.cameraInputSettings.m_OutputResolution.m_CustomWidth
    value: 1024
    objectReference: {fileID: 0}
  - target: {fileID: 0}
    propertyPath: m_ImageInputSelector.cameraInputSettings.m_OutputResolution.m_CustomHeight
    value: 1024
    objectReference: {fileID: 0}
  - target: {fileID: 0}
    propertyPath: m_ImageInputSelector.cameraInputSettings.m_OutputResolution.imageHeight
    value: 0
    objectReference: {fileID: 0}
  - target: {fileID: 0}
    propertyPath: m_ImageInputSelector.cameraInputSettings.m_OutputResolution.maxSupportedHeight
    value: 4320
    objectReference: {fileID: 0}
  - target: {fileID: 0}
    propertyPath: m_ImageInputSelector.cameraInputSettings.m_OutputResolution.m_AspectRatio.m_CustomAspectX
    value: 1
    objectReference: {fileID: 0}
  - target: {fileID: 0}
    propertyPath: m_ImageInputSelector.cameraInputSettings.m_OutputResolution.m_AspectRatio.m_CustomAspectY
    value: 1
    objectReference: {fileID: 0}
  - target: {fileID: 0}
    propertyPath: m_ImageInputSelector.cameraInputSettings.m_OutputResolution.m_AspectRatio.m_ImageAspect
    value: 1
    objectReference: {fileID: 0}
  - target: {fileID: 0}
    propertyPath: m_ImageInputSelector.cameraInputSettings.source
    value: 2
    objectReference: {fileID: 0}
  - target: {fileID: 0}
    propertyPath: m_ImageInputSelector.cameraInputSettings.cameraTag
    value: 
    objectReference: {fileID: 0}
  - target: {fileID: 0}
    propertyPath: m_ImageInputSelector.cameraInputSettings.flipFinalOutput
    value: 0
    objectReference: {fileID: 0}
  - target: {fileID: 0}
    propertyPath: m_ImageInputSelector.cameraInputSettings.captureUI
    value: 0
    objectReference: {fileID: 0}
  - target: {fileID: 0}
    propertyPath: m_ImageInputSelector.camera360InputSettings.source
    value: 2
    objectReference: {fileID: 0}
  - target: {fileID: 0}
    propertyPath: m_ImageInputSelector.camera360InputSettings.cameraTag
    value: 
    objectReference: {fileID: 0}
  - target: {fileID: 0}
    propertyPath: m_ImageInputSelector.camera360InputSettings.flipFinalOutput
    value: 0
    objectReference: {fileID: 0}
  - target: {fileID: 0}
    propertyPath: m_ImageInputSelector.camera360InputSettings.renderStereo
    value: 1
    objectReference: {fileID: 0}
  - target: {fileID: 0}
    propertyPath: m_ImageInputSelector.camera360InputSettings.stereoSeparation
    value: 0.065
    objectReference: {fileID: 0}
  - target: {fileID: 0}
    propertyPath: m_ImageInputSelector.camera360InputSettings.mapSize
    value: 1024
    objectReference: {fileID: 0}
  - target: {fileID: 0}
    propertyPath: m_ImageInputSelector.camera360InputSettings.m_OutputWidth
    value: 1024
    objectReference: {fileID: 0}
  - target: {fileID: 0}
    propertyPath: m_ImageInputSelector.camera360InputSettings.m_OutputHeight
    value: 2048
    objectReference: {fileID: 0}
  - target: {fileID: 0}
    propertyPath: m_ImageInputSelector.renderTextureInputSettings.renderTexture
    value: 
    objectReference: {fileID: 0}
  - target: {fileID: 0}
    propertyPath: m_ImageInputSelector.renderTextureInputSettings.flipFinalOutput
    value: 0
    objectReference: {fileID: 0}
  - target: {fileID: 0}
    propertyPath: m_ImageInputSelector.renderTextureSamplerSettings.source
    value: 1
    objectReference: {fileID: 0}
  - target: {fileID: 0}
    propertyPath: m_ImageInputSelector.renderTextureSamplerSettings.m_RenderWidth
    value: 1280
    objectReference: {fileID: 0}
  - target: {fileID: 0}
    propertyPath: m_ImageInputSelector.renderTextureSamplerSettings.m_RenderHeight
    value: 720
    objectReference: {fileID: 0}
  - target: {fileID: 0}
    propertyPath: m_ImageInputSelector.renderTextureSamplerSettings.m_OutputWidth
    value: 1280
    objectReference: {fileID: 0}
  - target: {fileID: 0}
    propertyPath: m_ImageInputSelector.renderTextureSamplerSettings.m_OutputHeight
    value: 720
    objectReference: {fileID: 0}
  - target: {fileID: 0}
    propertyPath: m_ImageInputSelector.renderTextureSamplerSettings.outputAspectRatio.m_CustomAspectX
    value: 1
    objectReference: {fileID: 0}
  - target: {fileID: 0}
    propertyPath: m_ImageInputSelector.renderTextureSamplerSettings.outputAspectRatio.m_CustomAspectY
    value: 1
    objectReference: {fileID: 0}
  - target: {fileID: 0}
    propertyPath: m_ImageInputSelector.renderTextureSamplerSettings.outputAspectRatio.m_ImageAspect
    value: 1
    objectReference: {fileID: 0}
  - target: {fileID: 0}
    propertyPath: m_ImageInputSelector.renderTextureSamplerSettings.superSampling
    value: 1
    objectReference: {fileID: 0}
  - target: {fileID: 0}
    propertyPath: m_ImageInputSelector.renderTextureSamplerSettings.superKernelPower
    value: 16
    objectReference: {fileID: 0}
  - target: {fileID: 0}
    propertyPath: m_ImageInputSelector.renderTextureSamplerSettings.superKernelScale
    value: 1
    objectReference: {fileID: 0}
  - target: {fileID: 0}
    propertyPath: m_ImageInputSelector.renderTextureSamplerSettings.cameraTag
    value: 
    objectReference: {fileID: 0}
  - target: {fileID: 0}
    propertyPath: m_ImageInputSelector.renderTextureSamplerSettings.colorSpace
    value: 0
    objectReference: {fileID: 0}
  - target: {fileID: 0}
    propertyPath: m_ImageInputSelector.renderTextureSamplerSettings.flipFinalOutput
    value: 0
    objectReference: {fileID: 0}
  - target: {fileID: 0}
    propertyPath: m_AudioInputSettings.preserveAudio
    value: 1
    objectReference: {fileID: 0}
  - target: {fileID: 0}
    propertyPath: _accumulationSettings
    value: 7295298301959864321
    objectReference: {fileID: 0}
  - target: {fileID: 0}
    propertyPath: outputFormat
    value: 0
    objectReference: {fileID: 0}
  - target: {fileID: 0}
    propertyPath: encodingQuality
    value: 2
    objectReference: {fileID: 0}
  - target: {fileID: 0}
    propertyPath: containerFormatSelected
    value: 0
    objectReference: {fileID: 0}
  - target: {fileID: 0}
    propertyPath: encoderSelected
    value: 0
    objectReference: {fileID: 0}
  - target: {fileID: 0}
    propertyPath: encoderPresetSelected
    value: 0
    objectReference: {fileID: 0}
  - target: {fileID: 0}
    propertyPath: encoderPresetSelectedName
    value: 
    objectReference: {fileID: 0}
  - target: {fileID: 0}
    propertyPath: encoderPresetSelectedOptions
    value: 
    objectReference: {fileID: 0}
  - target: {fileID: 0}
    propertyPath: encoderPresetSelectedSuffixes
    value: 
    objectReference: {fileID: 0}
  - target: {fileID: 0}
    propertyPath: encoderColorDefinitionSelected
    value: 0
    objectReference: {fileID: 0}
  - target: {fileID: 0}
    propertyPath: encoderCustomOptions
    value: 
    objectReference: {fileID: 0}
  - target: {fileID: 0}
    propertyPath: managedReferences[7295298301959864320]
    value: Unity.Recorder.Editor UnityEditor.Recorder.Encoder.CoreEncoderSettings
    objectReference: {fileID: 0}
  - target: {fileID: 0}
    propertyPath: managedReferences[7295298301959864320].targetBitRate
    value: 8
    objectReference: {fileID: 0}
  - target: {fileID: 0}
    propertyPath: managedReferences[7295298301959864320].gopSize
    value: 25
    objectReference: {fileID: 0}
  - target: {fileID: 0}
    propertyPath: managedReferences[7295298301959864320].numConsecutiveBFrames
    value: 2
    objectReference: {fileID: 0}
  - target: {fileID: 0}
    propertyPath: managedReferences[7295298301959864320].encodingProfile
    value: 2
    objectReference: {fileID: 0}
  - target: {fileID: 0}
    propertyPath: managedReferences[7295298301959864320].keyframeDistance
    value: 25
    objectReference: {fileID: 0}
  - target: {fileID: 0}
    propertyPath: managedReferences[7295298301959864320].codec
    value: 1
    objectReference: {fileID: 0}
  - target: {fileID: 0}
    propertyPath: managedReferences[7295298301959864320].encodingQuality
    value: 2
    objectReference: {fileID: 0}
  - target: {fileID: 0}
    propertyPath: managedReferences[7295298301959864321]
    value: Unity.Recorder.Editor AccumulationSettings
    objectReference: {fileID: 0}
  - target: {fileID: 0}
    propertyPath: managedReferences[7295298301959864321].captureAccumulation
    value: 0
    objectReference: {fileID: 0}
  - target: {fileID: 0}
    propertyPath: managedReferences[7295298301959864321].samples
    value: 1
    objectReference: {fileID: 0}
  - target: {fileID: 0}
    propertyPath: managedReferences[7295298301959864321].shutterInterval
    value: 1
    objectReference: {fileID: 0}
  - target: {fileID: 0}
    propertyPath: managedReferences[7295298301959864321].shutterProfileType
    value: 0
    objectReference: {fileID: 0}
  - target: {fileID: 0}
    propertyPath: managedReferences[7295298301959864321].shutterProfileCurve.m_Curve.Array.size
    value: 2
    objectReference: {fileID: 0}
  - target: {fileID: 0}
    propertyPath: managedReferences[7295298301959864321].shutterProfileCurve.m_Curve.Array.data[0].time
    value: 0
    objectReference: {fileID: 0}
  - target: {fileID: 0}
    propertyPath: managedReferences[7295298301959864321].shutterProfileCurve.m_Curve.Array.data[0].value
    value: 1
    objectReference: {fileID: 0}
  - target: {fileID: 0}
    propertyPath: managedReferences[7295298301959864321].shutterProfileCurve.m_Curve.Array.data[0].inSlope
    value: 0
    objectReference: {fileID: 0}
  - target: {fileID: 0}
    propertyPath: managedReferences[7295298301959864321].shutterProfileCurve.m_Curve.Array.data[0].outSlope
    value: 0
    objectReference: {fileID: 0}
  - target: {fileID: 0}
    propertyPath: managedReferences[7295298301959864321].shutterProfileCurve.m_Curve.Array.data[0].tangentMode
    value: 0
    objectReference: {fileID: 0}
  - target: {fileID: 0}
    propertyPath: managedReferences[7295298301959864321].shutterProfileCurve.m_Curve.Array.data[0].weightedMode
    value: 0
    objectReference: {fileID: 0}
  - target: {fileID: 0}
    propertyPath: managedReferences[7295298301959864321].shutterProfileCurve.m_Curve.Array.data[0].inWeight
    value: 0
    objectReference: {fileID: 0}
  - target: {fileID: 0}
    propertyPath: managedReferences[7295298301959864321].shutterProfileCurve.m_Curve.Array.data[0].outWeight
    value: 0
    objectReference: {fileID: 0}
  - target: {fileID: 0}
    propertyPath: managedReferences[7295298301959864321].shutterProfileCurve.m_Curve.Array.data[1].time
    value: 1
    objectReference: {fileID: 0}
  - target: {fileID: 0}
    propertyPath: managedReferences[7295298301959864321].shutterProfileCurve.m_Curve.Array.data[1].value
    value: 1
    objectReference: {fileID: 0}
  - target: {fileID: 0}
    propertyPath: managedReferences[7295298301959864321].shutterProfileCurve.m_Curve.Array.data[1].inSlope
    value: 0
    objectReference: {fileID: 0}
  - target: {fileID: 0}
    propertyPath: managedReferences[7295298301959864321].shutterProfileCurve.m_Curve.Array.data[1].outSlope
    value: 0
    objectReference: {fileID: 0}
  - target: {fileID: 0}
    propertyPath: managedReferences[7295298301959864321].shutterProfileCurve.m_Curve.Array.data[1].tangentMode
    value: 0
    objectReference: {fileID: 0}
  - target: {fileID: 0}
    propertyPath: managedReferences[7295298301959864321].shutterProfileCurve.m_Curve.Array.data[1].weightedMode
    value: 0
    objectReference: {fileID: 0}
  - target: {fileID: 0}
    propertyPath: managedReferences[7295298301959864321].shutterProfileCurve.m_Curve.Array.data[1].inWeight
    value: 0
    objectReference: {fileID: 0}
  - target: {fileID: 0}
    propertyPath: managedReferences[7295298301959864321].shutterProfileCurve.m_Curve.Array.data[1].outWeight
    value: 0
    objectReference: {fileID: 0}
  - target: {fileID: 0}
    propertyPath: managedReferences[7295298301959864321].shutterProfileCurve.m_PreInfinity
    value: 2
    objectReference: {fileID: 0}
  - target: {fileID: 0}
    propertyPath: managedReferences[7295298301959864321].shutterProfileCurve.m_PostInfinity
    value: 2
    objectReference: {fileID: 0}
  - target: {fileID: 0}
    propertyPath: managedReferences[7295298301959864321].shutterProfileCurve.m_RotationOrder
    value: 4
    objectReference: {fileID: 0}
  - target: {fileID: 0}
    propertyPath: managedReferences[7295298301959864321].shutterFullyOpen
    value: 0.25
    objectReference: {fileID: 0}
  - target: {fileID: 0}
    propertyPath: managedReferences[7295298301959864321].shutterBeginsClosing
    value: 0.75
    objectReference: {fileID: 0}
  - target: {fileID: 0}
    propertyPath: managedReferences[7295298301959864321].useSubPixelJitter
    value: 1
    objectReference: {fileID: 0}
  m_ExcludedProperties: []
